{
  "modelId": 1,
  "shipStats": {
    "turnSpeed": 1,
    "movementSpeed": 1,
    "health": 100
  },
  "weaponSlots": [
    {
      "angle": 0,
      "arc": 360,
      "id": 0,
      "locations": [
        0,
        0
      ],
      "size": "SMALL",
      "type": "ENERGY"
    }
  ]
}